{
  "version": "1",
  "type": "LineChart",
  "data": {
    "type": "cube_analytics",
    "query": {
      "measures": [
        "Jitsu.count"
      ],
      "dimensions": [
        "Jitsu.eventType"
      ],
      "timeDimensions": [
        {
          "granularity": "day",
          "dimension": "Jitsu.utcTime"
        }
      ],
      "limit": 5000
    }
  },
  "options": {
    "xAxis": {
      "name": "Time",
      "type": "time"
    },
    "yAxis": {
      "name": "Counts"
    }
  }
}